[
  {
    "NOMBRE": "Sergio",
    "APELLIDO": "Velez",
    "TELEFONO": "0980245795",
    "EMAIL": "e1310767015@live.uleam.edu.ec"
  },
  {
    "NOMBRE": "Daniel",
    "APELLIDO": "Baque",
    "TELEFONO": "0965232456",
    "EMAIL": "e131354986@live.uleam.edu.ec"
  },
  {
    "NOMBRE": "Jesus",
    "APELLIDO": "Toala",
    "TELEFONO": "0985223323",
    "EMAIL": "e130365487@live.uleam.edu.ec"
  },
  {
    "NOMBRE": "Javier Loor",
    "APELLIDO": "Velez",
    "TELEFONO": "0964885527",
    "EMAIL": "e1310767015@live.uleam.edu.ec"
  },
  {
    "NOMBRE": "Cristhian",
    "APELLIDO": "Arteaga",
    "TELEFONO": "0968745535",
    "EMAIL": "e131354986@live.uleam.edu.ec"
  },
  {
    "NOMBRE": "Adrian",
    "APELLIDO": "Cedeño",
    "TELEFONO": "0968745668",
    "EMAIL": "e130365487@live.uleam.edu.ec"
  },
  {
    "NOMBRE": "Juan",
    "APELLIDO": "Ramirez",
    "TELEFONO": "0964455668",
    "EMAIL": "e1310767015@live.uleam.edu.ec"
  },
  {
    "NOMBRE": "Steven",
    "APELLIDO": "Zambrano",
    "TELEFONO": "0965455688",
    "EMAIL": "e131354986@live.uleam.edu.ec"
  },
  {
    "NOMBRE": "Jonathan",
    "APELLIDO": "Alcivar",
    "TELEFONO": "0965482265",
    "EMAIL": "e130365487@live.uleam.edu.ec"
  }
]